,EU,BE,BG,CZ,DK,DE,EE,IE,EL,ES,FR,HR,IT,CY,LV,LT,LU,HU,MT,NL,AT,PL,PT,RO,SI,SK,FI,SE,UK,IS,IL,MK,NO,RS,CH,TR,UA
1.1.1 New doctorate graduates,1.8,1.8,1.4,1.7,3.2,2.8,1.1,2.1,1.0,1.8,1.7,1.5,1.5,0.4,0.9,1.1,0.8,0.9,0.4,2.2,2.0,0.6,3.1,1.4,3.9,2.5,2.9,2.9,2.9,0.9,1.5,0.7,2.1,0.8,3.5,0.4,1.0
1.1.2 Population completed tertiary education,38.5,43.1,32.0,29.5,46.7,31.8,45.2,52.3,39.4,41.1,44.9,31.7,24.9,54.2,41.0,56.4,50.5,34.9,27.0,46.4,39.1,43.2,31.3,25.5,42.6,27.9,45.3,50.0,47.7,47.5,51.0,28.5,51.6,24.7,51.5,23.0,50.3
1.1.3 Youth with upper secondary level education,82.6,84.3,85.2,90.7,73.4,77.4,82.6,92.8,89.5,67.9,87.3,95.5,80.0,94.2,86.2,91.3,68.6,84.3,77.4,79.8,88.7,90.9,75.9,79.9,90.1,91.2,86.6,87.7,85.4,61.4,91.4,87.1,79.1,83.4,86.0,53.7,61.7
1.2.1 International scientific co-publications,459,1352,173,661,2067,729,908,1080,549,645,651,410,552,999,221,355,1599,414,517,1450,1226,251,795,173,1069,383,1486,1774,1059,2498,872,130,1592,308,2557,82,58
1.2.2 Scientific publications among top 10% most cited,10.5,12.9,3.5,7.3,13.3,11.5,7.3,11.7,9.0,9.2,11.3,4.5,10.1,9.5,6.3,4.5,11.7,6.5,7.9,14.5,11.7,5.0,9.0,4.7,7.4,5.5,10.9,11.7,14.2,9.8,10.0,n/a,11.3,4.5,15.7,4.8,3.1
1.2.3 Non-EU doctorate students,17.8,25.0,3.0,5.2,15.2,7.4,4.4,14.3,n/a,12.0,33.6,3.0,10.1,2.2,2.9,1.4,23.5,3.8,2.1,19.3,9.3,1.3,13.9,2.1,5.7,1.8,12.8,24.5,30.0,19.8,n/a,3.9,33.5,7.1,52.1,5.0,n/a
1.3.1 Public R&D expenditure,0.72,0.70,0.27,0.87,1.08,0.91,0.80,0.40,0.54,0.58,0.76,0.41,0.54,0.32,0.45,0.72,0.59,0.38,0.33,0.87,0.86,0.50,0.66,0.22,0.54,0.56,1.00,1.04,0.57,0.78,0.59,0.19,0.79,0.54,0.86,0.48,0.34
1.3.2 Venture capital,0.063,0.072,0.015,0.013,0.059,0.049,0.136,0.086,0.001,0.043,0.083,0.054,0.022,0.071,0.098,0.081,0.047,0.055,0.000,0.096,0.051,0.029,0.069,0.013,0.007,0.008,0.107,0.081,0.103,n/a,0.009,0.000,0.077,0.000,0.067,n/a,0.002
2.1.1 Business R&D expenditure,1.30,1.76,0.52,1.12,1.95,1.95,0.63,1.11,0.28,0.65,1.46,0.38,0.72,0.08,0.25,0.30,0.66,0.98,0.50,1.11,2.11,0.44,0.59,0.16,1.85,0.33,2.15,2.12,1.09,1.07,3.47,0.03,0.92,0.23,2.05,0.48,0.42
2.1.2 Non-R&D innovation expenditure,0.69,0.60,0.49,0.73,0.37,1.35,1.55,0.39,0.87,0.31,0.37,0.95,0.57,0.58,1.38,1.10,0.14,0.70,1.20,0.18,0.46,1.04,0.60,0.30,0.48,0.79,0.37,0.79,0.30,n/a,n/a,0.90,0.24,2.82,2.01,2.59,0.50
2.2.1 SMEs innovating in-house,28.7,37.4,11.6,27.3,30.4,38.6,27.4,38.8,26.6,15.5,28.8,19.3,36.6,27.9,13.8,13.8,37.2,10.6,29.0,38.9,31.8,10.1,33.8,4.7,25.8,15.0,36.5,34.4,17.6,n/a,21.6,11.3,20.3,25.2,45.2,22.5,18.7
2.2.2 Innovative SMEs collaborating with others,10.3,22.9,2.3,11.6,17.3,11.5,15.8,12.0,12.4,6.0,11.5,7.5,4.8,15.3,4.5,7.5,8.9,5.6,5.1,14.5,15.3,3.9,6.8,1.2,14.6,6.7,14.3,12.7,22.4,17.5,12.9,9.6,7.9,7.6,9.4,4.2,1.5
2.2.3 Public-private co-publications,33.9,68.5,2.1,13.8,143.5,53.0,6.8,34.3,9.9,16.3,39.6,10.6,18.0,7.0,0.5,1.7,40.0,23.2,2.4,85.6,59.0,3.7,7.1,2.6,66.0,8.1,69.9,107.8,50.2,187.3,24.2,0.5,50.9,6.2,217.6,1.4,1.0
2.3.1 PCT patent applications,3.53,3.17,0.48,0.91,6.24,6.26,1.00,2.40,0.55,1.48,3.77,0.54,1.96,0.63,0.82,0.60,1.39,1.19,0.62,5.57,5.06,0.51,0.66,0.17,2.73,0.65,8.17,7.99,3.30,2.97,11.15,0.03,2.56,n/a,6.70,0.66,1.70
2.3.2 PCT patent applications in societal challenges,1.01,0.77,0.08,0.24,2.05,1.47,0.20,0.65,0.13,0.47,0.92,0.20,0.47,0.06,0.28,0.12,0.68,0.29,0.28,1.68,1.07,0.17,0.23,0.04,0.59,0.09,1.61,1.88,0.80,1.76,4.53,0.00,0.56,n/a,1.94,0.19,n/a
2.3.3 Community trademarks,6.09,5.87,7.07,3.83,8.35,6.88,11.56,6.03,3.66,7.81,3.92,1.87,5.96,25.84,4.46,3.99,29.88,2.94,38.63,6.97,9.51,4.71,5.83,2.02,6.82,2.99,7.22,8.26,6.21,12.52,2.34,0.54,1.47,0.67,11.10,0.61,0.27
2.3.4 Community designs,4.44,2.90,9.87,3.10,8.03,6.52,3.08,1.59,0.98,2.97,3.06,0.90,5.93,1.98,2.26,1.29,15.36,0.87,24.94,3.41,7.44,6.02,4.38,0.59,3.37,1.51,5.44,4.92,3.13,0.42,1.74,0.00,0.35,0.01,6.55,0.26,0.10
3.1.1 SMEs introducing product or process innovations,30.6,42.3,13.6,30.9,33.9,42.4,33.0,35.7,29.6,18.4,32.4,21.6,38.8,29.2,15.7,16.1,43.1,12.8,32.0,40.9,35.7,13.1,38.3,5.2,28.7,17.7,40.1,39.9,27.8,54.2,22.2,39.2,22.5,28.6,32.6,24.0,7.4
3.1.2 SMEs introducing marketing/organisational innovations,36.2,36.7,17.6,30.2,40.4,46.2,31.2,49.6,45.0,22.6,41.2,30.4,44.7,35.6,23.1,25.2,52.1,25.3,43.3,35.2,44.7,14.2,42.8,18.1,35.9,26.2,37.0,38.2,39.1,46.0,44.9,30.8,32.4,40.6,n/a,43.2,10.5
3.1.3 Employment in fast-growing enterprises ,18.8,16.9,16.5,18.4,20.1,21.0,16.0,23.4,15.2,16.2,21.7,11.6,16.3,23.5,12.3,11.6,17.7,19.2,20.0,16.9,19.4,18.2,14.8,16.9,16.0,20.9,18.4,19.6,18.7,16.7,19.3,n/a,17.5,n/a,19.6,14.0,n/a
3.2.1 Employment in knowledge-intensive activities,13.9,15.4,9.4,12.7,15.4,14.6,11.4,20.2,12.2,12.3,14.0,10.7,13.6,17.2,10.9,8.8,27.5,12.3,17.9,17.3,14.7,9.9,10.3,6.9,14.0,9.9,15.8,17.9,18.0,18.2,26.9,6.3,16.3,14.4,21.4,5.7,12.9
3.2.2 Medium and high tech product exports,56.1,48.5,31.2,64.0,47.7,67.4,42.6,52.1,22.7,47.7,58.5,37.9,52.3,43.0,32.1,34.4,52.1,69.5,56.7,48.0,57.4,49.6,36.7,52.8,56.0,66.6,44.6,54.7,54.8,11.5,51.5,52.2,13.6,40.0,49.9,36.6,31.8
3.2.3 Knowledge-intensive services exports,63.1,64.6,27.1,41.1,75.1,69.6,43.9,88.5,51.8,42.2,58.6,17.8,48.5,69.0,49.8,18.3,88.4,38.3,25.9,65.3,43.2,36.7,43.2,44.7,32.9,35.3,50.6,65.0,77.9,62.9,68.3,n/a,75.8,n/a,50.4,27.7,38.9
3.2.4 Sales of new to market and new to firm innovations,12.4,11.2,4.2,13.4,22.1,13.0,7.8,9.3,11.8,14.3,13.5,10.0,11.0,11.4,5.0,5.5,7.9,9.7,10.2,11.8,9.8,6.3,12.4,3.7,10.5,19.6,11.1,6.1,14.1,6.1,11.9,9.9,5.2,12.4,16.1,33.6,3.3
3.2.5 Licence and patent revenues from abroad,0.54,0.63,0.06,0.24,0.71,0.36,0.04,2.53,0.05,0.10,0.50,0.04,0.16,0.01,0.02,0.05,1.66,1.51,3.10,2.24,0.25,0.06,0.04,0.07,0.14,0.03,1.38,1.59,0.60,0.59,0.42,0.08,0.08,0.10,3.08,n/a,0.09
